Chapter 5 Tidyverse | Formation R
…
df_1[c(100:103), c(2,3)]
# on peut sélectionner une variable avec [[]] ou l'opérateur dollar 
df_1[[4]]
df_1$trait

Vous pouvez vous référer au cheatsheet du package dplyr pour avoir un pense-bête des fonctions de manipulation de données associées au Tidyverse.

5.4 Inspecter les données

Contrairement au format data.frame, le format tibble n’imprime à l’écran que les 10 premières lignes et les colonnes qui peuvent être affichée dans un même écran. Le type de variable (double, caractère, facteur, …) apparaît en en-tête de colonne. Certaines informations particulières sont mises en valeurs par des couleurs (par exemple, les NA apparaîssent en couleur).

df_1

## # A tibble: 300 × 5
##    subjid   sex   imc trait   pas
##     <dbl> <dbl> <dbl> <dbl> <dbl>
##  1      1     0  24.8     2   140
##  2      2     0  24.1     3   109
##  3      3     0  26.4     1   156
##  4      4     0  23.3     2   124
##  5      5     0  25.4     2   131
##  6      6     1  25       3   148
##  7      7     0  25.2     3   125
##  8      8     0  21.5     3   117
##  9      9     0  21.8     1   132
## 10     10     0  25.9     1   133
## # ℹ 290 more rows
…
case_when fonctionne selon le même principe que la fonction if_else mais pour créer des variables à plus de 2 catégories. Voir l’aide ?case_when.

### créer la variable obésité.
# note avec le pipe, pensez à assigner le résultat dans df_1 pour que la 
# variable crée soit bien sauvegardée dans la base df_1
# (ci-dessous, la variable est uniquement crée de manière temporaire)
df_1 %>% 
  mutate(obesite = if_else(df_1$imc >= 30, 1, 0)) 

## # A tibble: 300 × 6
##    subjid   sex   imc trait   pas obesite
##     <dbl> <dbl> <dbl> <dbl> <dbl>   <dbl>
##  1      1     0  24.8     2   140       0
##  2      2     0  24.1     3   109       0
##  3      3     0  26.4     1   156       0
##  4      4     0  23.3     2   124       0
##  5      5     0  25.4     2   131       0
##  6      6     1  25       3   148       0
##  7      7     0  25.2     3   125       0
##  8      8     0  21.5     3   117       0
##  9      9     0  21.8     1   132       0
## 10     10     0  25.9     1   133       0
## # ℹ 290 more rows
…
5.10 Analyses bivariées

5.10.1 Variable quantitative \(\times\) qualitative

Le package dplyr permet décrire une variable quantitative en fonction d’une variable qualitative, avec la fonction group_by().

Par exemple, la fonction summarise() créé les indicateurs statistiques par sous-groupe lorsque qu’elle est utilisée après la commande group_by().

df_1 %>%
  group_by(sexL)

## # A tibble: 300 × 9
## # Groups:   sexL [2]
##    subjid   sex   imc trait   pas obesite imc_cl sexL     traitL      
##     <dbl> <dbl> <dbl> <dbl> <dbl>   <dbl>  <dbl> <fct>    <fct>       
##  1      1     0  24.8     2   140       0      2 Féminin  Traitement A
##  2      2     0  24.1     3   109       0      2 Féminin  Traitement B
##  3      3     0  26.4     1   156       0      3 Féminin  Placebo     
##  4      4     0  23.3     2   124       0      2 Féminin  Traitement A
##  5      5     0  25.4     2   131       0      3 Féminin  Traitement A
##  6      6     1  25       3   148       0      3 Masculin Traitement B
##  7      7     0  25.2     3   125       0      3 Féminin  Traitement B
##  8      8     0  21.5     3   117       0      2 Féminin  Traitement B
##  9      9     0  21.8     1   132       0      2 Féminin  Placebo     
## 10     10     0  25.9     1   133       0      3 Féminin  Placebo     
## # ℹ 290 more rows

# Notez qu'en description, le tibble indique qu'il considère la variable sexL
# comme une variable de groupe => cela est pris en compte pour les analyses qui 
# suivront dans le pipe.
# Si vous avez sauvegardé une base tibble avec une propriété de sous-groupe, 
# vous pouvez la supprimer avec la fonction ungroup()
df_1 %>%
  group_by(sexL) %>%
  ungroup()

## # A tibble: 300 × 9
##    subjid   sex   imc trait   pas obesite imc_cl sexL     traitL      
##     <dbl> <dbl> <dbl> <dbl> <dbl>   <dbl>  <dbl> <fct>    <fct>       
##  1      1     0  24.8     2   140       0      2 Féminin  Traitement A
##  2      2     0  24.1     3   109       0      2 Féminin  Traitement B
##  3      3     0  26.4     1   156       0      3 Féminin  Placebo     
##  4      4     0  23.3     2   124       0      2 Féminin  Traitement A
##  5      5     0  25.4     2   131       0      3 Féminin  Traitement A
##  6      6     1  25       3   148       0      3 Masculin Traitement B
##  7      7     0  25.2     3   125       0      3 Féminin  Traitement B
##  8      8     0  21.5     3   117       0      2 Féminin  Traitement B
##  9      9     0  21.8     1   132       0      2 Féminin  Placebo     
## 10     10     0  25.9     1   133       0      3 Féminin  Placebo     
## # ℹ 290 more rows
…
